<?xml version="1.0" encoding="UTF-8"?>
<svg width="18px" height="16px" viewBox="0 0 18 16" version="1.1" xmlns="http://www.w3.org/2000/svg" xmlns:xlink="http://www.w3.org/1999/xlink">
    <!-- Generator: Sketch 55.2 (78181) - https://sketchapp.com -->
    <title>heart</title>
    <desc>Created with Sketch.</desc>
    <g id="old-Settings" stroke="none" stroke-width="1" fill="none" fill-rule="evenodd">
        <path d="M8.99955579,16 C-8.55839479,6.48624056 4.14004971,-5.34165577 8.99955579,2.62421177 C13.8598372,-5.34165577 26.5590569,6.48624056 8.99955579,16 Z" id="heart" fill="#000000" fill-rule="nonzero"></path>
    </g>
</svg>