<?xml version="1.0" encoding="UTF-8"?>
<svg width="10px" height="20px" viewBox="0 0 10 20" version="1.1" xmlns="http://www.w3.org/2000/svg" xmlns:xlink="http://www.w3.org/1999/xlink">
    <!-- Generator: Sketch 61.2 (89653) - https://sketch.com -->
    <title>facebook-icon</title>
    <desc>Created with Sketch.</desc>
    <g id="Landings" stroke="none" stroke-width="1" fill="none" fill-rule="evenodd">
        <path d="M2,4.55 L2,6.55 L0,6.55 L0,9.79 L2,9.79 L2,19.53 L5.21,19.53 L5.21,9.75 L8.44,9.75 L8.95,6.51 L5.21,6.51 L5.21,4.89 C5.21,4.04 5.49,3.24 6.7,3.24 L9.13,3.24 L9.13,0 L5.69,0 C2.79,0 2,1.91 2,4.55 Z" id="facebook-icon" fill="#000000" fill-rule="nonzero"></path>
    </g>
</svg>